<svg width="135" height="99" viewBox="0 0 135 99" fill="none" xmlns="http://www.w3.org/2000/svg">
<path fill-rule="evenodd" clip-rule="evenodd" d="M12.375 12.75V67.875L0.125 67.875V86.25C0.125 93.0155 5.60951 98.5 12.375 98.5H91.9804L92 98.5H122.625C129.39 98.5 134.875 93.0155 134.875 86.25V31.125C134.875 24.3595 129.39 18.875 122.625 18.875V12.75C122.625 5.98451 117.14 0.5 110.375 0.5H24.625C17.8595 0.5 12.375 5.98451 12.375 12.75ZM110.375 18.875V12.75H24.625V67.875L79.75 67.875L79.75 31.125C79.75 24.3595 85.2345 18.875 92 18.875L110.375 18.875ZM12.375 80.125H79.75L79.75 86.25L12.375 86.25V80.125ZM122.625 86.25H92V31.125H122.625V86.25Z" fill="black"/>
</svg>
